Unit 2 Project
…
penguins_messy %>%
  pull(valid_id) %>%
  sum

## [1] 316

Q3

penguins_messy<- penguins_messy %>%
  filter(valid_id)
penguins_messy

## # A tibble: 316 × 7
##    species_messy island_messy sex_messy sample_id file_name       notes valid_id
##    <chr>         <chr>        <chr>     <chr>     <chr>           <chr> <lgl>   
##  1 adelie        Torgersen    M         PAL-535   "2024-01-14_To… "id=… TRUE    
##  2 adelie        Torgersen    f?        PAL-442   "2024-01-17_To… "id=… TRUE    
##  3 adelie        Torgersen    f?        PAL-668   "2024-01-08_To… "id=… TRUE    
##  4 adelie        Torgersen    <NA>      PAL-920   "2024-01-26_To… "id=… TRUE    
##  5 adelie        Torgersen    f?        PAL-223   "2024-01-06_To… "id=… TRUE    
##  6 adelie        Torgersen    M         PAL-899   "2024-01-08_To… "id=… TRUE    
##  7 adelie        Torgersen    f?        PAL-268   "2024-01-08_To… "id=… TRUE    
##  8 adelie        Torgersen    M         PAL-139   "2024-01-19_To… "id=… TRUE    
##  9 adelie        Torgersen    <NA>      PAL-847   "2024-01-14_To… "id=… TRUE    
## 10 adelie        Torgersen    <NA>      PAL-238   "2024-01-24_To… "id=… TRUE    
## # ℹ 306 more rows
…
penguins_new <- penguins_clean %>%
  select(species, island, sex, where(is.numeric))
length(penguins_new)

## [1] 8

8 total collumns, with 333 rows (penguins_new)

Q4

penguins_bill <- penguins_clean %>%
  select(starts_with("bill"),ends_with("_mm"))
penguins_bill

## # A tibble: 333 × 3
##    bill_length_mm bill_depth_mm flipper_length_mm
##             <dbl>         <dbl>             <int>
##  1           39.1          18.7               181
##  2           39.5          17.4               186
##  3           40.3          18                 195
##  4           36.7          19.3               193
##  5           39.3          20.6               190
##  6           38.9          17.8               181
##  7           39.2          19.6               195
##  8           41.1          17.6               182
##  9           38.6          21.2               191
## 10           34.6          21.1               198
## # ℹ 323 more rows

penguins_bill <- penguins_clean %>%
  select(matches("bi.*|fli.*"))
penguins_bill

## # A tibble: 333 × 3
##    bill_length_mm bill_depth_mm flipper_length_mm
##             <dbl>         <dbl>             <int>
##  1           39.1          18.7               181
##  2           39.5          17.4               186
##  3           40.3          18                 195
##  4           36.7          19.3               193
##  5           39.3          20.6               190
##  6           38.9          17.8               181
##  7           39.2          19.6               195
##  8           41.1          17.6               182
##  9           38.6          21.2               191
## 10           34.6          21.1               198
## # ℹ 323 more rows
…
The code across(where(is.numeric), …) is better than typics each
column by hand because it is more efficient/faster.

Q6

penguins_clean<-penguins_clean %>%
  mutate(bill_length=
           case_when(
             bill_length_mm<40~"short",
             bill_length_mm<50~"medium",
             bill_length_mm>=50~"long"))
penguins_clean

## # A tibble: 333 × 9
##    species island    bill_length_mm bill_depth_mm flipper_length_mm body_mass_g
##    <fct>   <fct>              <dbl>         <dbl>             <int>       <int>
##  1 Adelie  Torgersen           39.1          18.7               181        3750
##  2 Adelie  Torgersen           39.5          17.4               186        3800
##  3 Adelie  Torgersen           40.3          18                 195        3250
##  4 Adelie  Torgersen           36.7          19.3               193        3450
##  5 Adelie  Torgersen           39.3          20.6               190        3650
##  6 Adelie  Torgersen           38.9          17.8               181        3625
##  7 Adelie  Torgersen           39.2          19.6               195        4675
##  8 Adelie  Torgersen           41.1          17.6               182        3200
##  9 Adelie  Torgersen           38.6          21.2               191        3800
## 10 Adelie  Torgersen           34.6          21.1               198        4400
## # ℹ 323 more rows
## # ℹ 3 more variables: sex <fct>, year <int>, bill_length <chr>
…
penguins_instrumented<-penguins_clean %>%
  drop_na(bill_length_mm)%>%
  mutate(instrument_id=
         case_when(
           year==2007~"caliper_A",
           year==2008~"caliper_B",
           year==2009~"caliper_C"))
penguins_instrumented

## # A tibble: 333 × 10
##    species island    bill_length_mm bill_depth_mm flipper_length_mm body_mass_g
##    <fct>   <fct>              <dbl>         <dbl>             <int>       <int>
##  1 Adelie  Torgersen           39.1          18.7               181        3750
##  2 Adelie  Torgersen           39.5          17.4               186        3800
##  3 Adelie  Torgersen           40.3          18                 195        3250
##  4 Adelie  Torgersen           36.7          19.3               193        3450
##  5 Adelie  Torgersen           39.3          20.6               190        3650
##  6 Adelie  Torgersen           38.9          17.8               181        3625
##  7 Adelie  Torgersen           39.2          19.6               195        4675
##  8 Adelie  Torgersen           41.1          17.6               182        3200
##  9 Adelie  Torgersen           38.6          21.2               191        3800
## 10 Adelie  Torgersen           34.6          21.1               198        4400
## # ℹ 323 more rows
## # ℹ 4 more variables: sex <fct>, year <int>, bill_length <chr>,
## #   instrument_id <chr>

penguins_instrumented<-penguins_instrumented %>%
  left_join(instrument_meta,by="instrument_id")

penguins_instrumented

## # A tibble: 333 × 12
##    species island    bill_length_mm bill_depth_mm flipper_length_mm body_mass_g
##    <fct>   <fct>              <dbl>         <dbl>             <int>       <int>
##  1 Adelie  Torgersen           39.1          18.7               181        3750
##  2 Adelie  Torgersen           39.5          17.4               186        3800
##  3 Adelie  Torgersen           40.3          18                 195        3250
##  4 Adelie  Torgersen           36.7          19.3               193        3450
##  5 Adelie  Torgersen           39.3          20.6               190        3650
##  6 Adelie  Torgersen           38.9          17.8               181        3625
##  7 Adelie  Torgersen           39.2          19.6               195        4675
##  8 Adelie  Torgersen           41.1          17.6               182        3200
##  9 Adelie  Torgersen           38.6          21.2               191        3800
## 10 Adelie  Torgersen           34.6          21.1               198        4400
## # ℹ 323 more rows
## # ℹ 6 more variables: sex <fct>, year <int>, bill_length <chr>,
## #   instrument_id <chr>, calibration_mm <dbl>, manufacturer <chr>
…
